{
    "Version": "2012-10-17",
    "Statement": [
      {
        "Action": ["iam:ListRolePolicies", "sts:AssumeRole"],
        "Principal": {
          "Service": "ec2.amazonaws.com"
        },
        "Effect": "Allow",
        "Resource": "*"
      }
    ]
  }
  